{
	"info": {
		"_postman_id": "70099c75-55b2-4308-80fc-6fa34c2a646b",
		"name": "Bicicletas",
		"schema": "https://schema.getpostman.com/json/collection/v2.1.0/collection.json"
	},
	"item": [
		{
			"name": "usuarios",
			"item": [
				{
					"name": "http://localhost:3000/api/usuarios",
					"request": {
						"method": "GET",
						"header": [],
						"url": {
							"raw": "http://localhost:3000/api/usuarios",
							"protocol": "http",
							"host": [
								"localhost"
							],
							"port": "3000",
							"path": [
								"api",
								"usuarios"
							]
						}
					},
					"response": []
				},
				{
					"name": "http://localhost:3000/api/usuarios/create",
					"request": {
						"method": "POST",
						"header": [
							{
								"key": "Content-Type",
								"name": "Content-Type",
								"value": "application/json",
								"type": "text"
							}
						],
						"body": {
							"mode": "raw",
							"raw": "{\n\t\"nombre\":\"El señor barriga\"\n}",
							"options": {
								"raw": {
									"language": "json"
								}
							}
						},
						"url": {
							"raw": "http://localhost:3000/api/usuarios/create",
							"protocol": "http",
							"host": [
								"localhost"
							],
							"port": "3000",
							"path": [
								"api",
								"usuarios",
								"create"
							]
						}
					},
					"response": []
				}
			],
			"protocolProfileBehavior": {}
		},
		{
			"name": "http://localhost:3000/api/bicicletas",
			"request": {
				"method": "GET",
				"header": [],
				"url": {
					"raw": "http://localhost:3000/api/bicicletas",
					"protocol": "http",
					"host": [
						"localhost"
					],
					"port": "3000",
					"path": [
						"api",
						"bicicletas"
					]
				}
			},
			"response": []
		},
		{
			"name": "http://localhost:3000/api/bicicletas/create",
			"request": {
				"method": "POST",
				"header": [
					{
						"key": "Content-Type",
						"name": "Content-Type",
						"value": "application/json",
						"type": "text"
					}
				],
				"body": {
					"mode": "raw",
					"raw": "{\n\t\"color\":\"azul\",\n\t\"modelo\":\"montaña\",\n\t\"lat\":-34.656565,\n\t\"lng\":-58.989898\n}\n",
					"options": {
						"raw": {
							"language": "json"
						}
					}
				},
				"url": {
					"raw": "http://localhost:3000/api/bicicletas/create",
					"protocol": "http",
					"host": [
						"localhost"
					],
					"port": "3000",
					"path": [
						"api",
						"bicicletas",
						"create"
					]
				}
			},
			"response": []
		},
		{
			"name": "http://localhost:3000/api/bicicletas/delete",
			"request": {
				"method": "DELETE",
				"header": [
					{
						"key": "Content-Type",
						"name": "Content-Type",
						"value": "application/json",
						"type": "text"
					}
				],
				"body": {
					"mode": "raw",
					"raw": "{\n\t\"id\":1\n}",
					"options": {
						"raw": {
							"language": "json"
						}
					}
				},
				"url": {
					"raw": "http://localhost:3000/api/bicicletas/delete",
					"protocol": "http",
					"host": [
						"localhost"
					],
					"port": "3000",
					"path": [
						"api",
						"bicicletas",
						"delete"
					]
				}
			},
			"response": []
		},
		{
			"name": "http://localhost:3000/api/bicicletas/1/update",
			"request": {
				"method": "PUT",
				"header": [
					{
						"key": "Content-Type",
						"name": "Content-Type",
						"value": "application/json",
						"type": "text"
					}
				],
				"body": {
					"mode": "raw",
					"raw": "{\n\t\"id\":3,\n\t\"color\":\"azul\",\n\t\"modelo\":\"montaña\",\n\t\"lat\":-34.656565,\n\t\"lng\":-58.989898\n}\n",
					"options": {
						"raw": {
							"language": "json"
						}
					}
				},
				"url": {
					"raw": "http://localhost:3000/api/bicicletas/1/update",
					"protocol": "http",
					"host": [
						"localhost"
					],
					"port": "3000",
					"path": [
						"api",
						"bicicletas",
						"1",
						"update"
					]
				}
			},
			"response": []
		}
	],
	"protocolProfileBehavior": {}
}